Started at Sun Jan 08 20:13:42 UTC 2017
Cleaned up 0 records
Finished at Sun Jan 08 20:13:42 UTC 2017. 3ms
Started at Mon Jan 09 20:13:42 UTC 2017
Cleaned up 0 records
Finished at Mon Jan 09 20:13:42 UTC 2017. 1ms
