Started at Fri Jan 06 20:13:42 UTC 2017
Cleaned up 0 records
Finished at Fri Jan 06 20:13:42 UTC 2017. 1ms
Started at Sat Jan 07 20:13:42 UTC 2017
Cleaned up 0 records
Finished at Sat Jan 07 20:13:42 UTC 2017. 1ms
