Started at Mon Jan 02 20:13:42 UTC 2017
Cleaned up 0 records
Finished at Mon Jan 02 20:13:42 UTC 2017. 1ms
Started at Tue Jan 03 20:13:42 UTC 2017
Cleaned up 0 records
Finished at Tue Jan 03 20:13:42 UTC 2017. 0ms
