Started at Thu Dec 29 20:13:43 UTC 2016
Cleaned up 0 records
Finished at Thu Dec 29 20:13:43 UTC 2016. 1ms
Started at Fri Dec 30 20:13:43 UTC 2016
Cleaned up 0 records
Finished at Fri Dec 30 20:13:43 UTC 2016. 1ms
