Started at Sat Dec 31 20:13:43 UTC 2016
Cleaned up 0 records
Finished at Sat Dec 31 20:13:43 UTC 2016. 2ms
Started at Sun Jan 01 20:13:42 UTC 2017
Cleaned up 0 records
Finished at Sun Jan 01 20:13:42 UTC 2017. 1ms
