Started at Wed Jan 04 20:13:42 UTC 2017
Cleaned up 0 records
Finished at Wed Jan 04 20:13:42 UTC 2017. 2ms
Started at Thu Jan 05 20:13:42 UTC 2017
Cleaned up 0 records
Finished at Thu Jan 05 20:13:42 UTC 2017. 1ms
